1.69499683352407	0.756932889504587	0.398994197080276	0.296861586659735	0.468649709678707	0.61955530058437	0.661276142297777	0.522775785082465	0.326690254969925	0.209755397129868	0.229517572432809	0.180401280382226	0.110332823510108	0.093868331104471	0.055336869121902	0.023437259364786	0.023437259364786
0.824184179475763	3.20248154977538	1.20896831150298	0.337775678595425	0.26714469147322	0.458940458197789	0.517492892321215	0.529594075681772	0.413441962992681	0.180064018016647	0.130533605963451	0.127338933042345	0.108958349668497	0.080391284776817	0.035832726008271	0.023819777214587	0.023819777214587
0.273532234027142	1.50017827720724	5.46608505339456	0.860541301414218	0.531527934911866	0.389117931108315	0.414850512160432	0.457006498478722	0.487039308129147	0.280468827192133	0.166810541845089	0.097655481682995	0.063138551245837	0.064574457889396	0.043088327173338	0.033379585602002	0.033379585602002
0.150425098614751	0.488489863229672	2.34132876671143	7.07225619754028	1.59888339330297	0.64736070628781	0.378646077231273	0.417662296165641	0.394742570136496	0.31823328496962	0.130067131194512	0.06080771854165	0.041061481592527	0.036962241538391	0.020718224030238	0.012383693677743	0.012383693677743
0.19942448311151	0.262033928892589	0.402418621384871	2.61011212229337	3.94175310714869	1.34881115455738	0.738196141716137	0.451737487381276	0.324217331874454	0.342743561767323	0.188443674799526	0.117494040953885	0.043548850811105	0.03308906244546	0.03405886408906	0.024156236081306	0.024156236081306
0.298400146060887	0.160024117162885	0.148399008269246	0.58432414124884	1.52444258936566	1.6839854612174	0.884359593317882	0.545563620826906	0.336654070727	0.276298339204186	0.211445047849698	0.1067377418672	0.038740765209295	0.02855183222177	0.016816533670445	0.007631958921037	0.007631958921037
0.278393220542345	0.204125662058823	0.319393190413515	0.25643537832059	0.63404742096483	0.806930422364	0.934687138862001	0.614802260046531	0.357053770923427	0.247290822574436	0.227084435404524	0.154299702422061	0.0650619124682	0.046961631381535	0.022251655042762	0.018616811755478	0.018616811755478
0.232748673799473	0.283020141431706	0.219596122172114	0.163714532470177	0.364197194342963	0.553342917169001	0.639584230903952	0.717880057452054	0.46195277100368	0.26876312553162	0.165869682057956	0.123765398398533	0.097913467785462	0.067810383018344	0.037592405874426	0.013394738573435	0.013394738573435
0.147032564358099	0.196832398934155	0.31765270101009	0.205456800255198	0.344411241649762	0.357992737193351	0.4563568754366	0.454303440868849	0.454754411108654	0.2510403456589	0.155948954320576	0.069063033675558	0.060264417888124	0.042378901628734	0.030341786949152	0.011535166602795	0.011535166602795
0.040268236700855	0.068289565055924	0.091633205145239	0.175971158905535	0.225893190769934	0.242738117919801	0.274934187075797	0.282945006841754	0.25052672948545	0.232768229068156	0.163985684663385	0.070684397912437	0.046308928068877	0.030376432817548	0.025478413123689	0.017714941420096	0.017714941420096
0.057985667703966	0.112276807267224	0.131290465820081	0.19651944788384	0.335169075332904	0.368306051816683	0.249284684639651	0.222772350235634	0.232645153515785	0.235583323302551	0.167545994750476	0.124983843859097	0.069966799383262	0.038289485276067	0.023749983298783	0.014417361591757	0.014417361591757
0.074319193656518	0.068226620520919	0.075604099535968	0.090349737043092	0.211302422259646	0.308325668474315	0.295094204200729	0.225571318994882	0.203464329087787	0.129988040113445	0.172702929986983	0.151816359363429	0.090546963418569	0.05063412929732	0.026410341050788	0.012913063564338	0.012913063564338
0.046013601821833	0.051912629747698	0.046020356426859	0.073621435144402	0.144910528241402	0.193045033185337	0.184009106127463	0.203184379909881	0.1617029292753	0.118701917055389	0.097253871833889	0.113483991115606	0.090916982563232	0.066413306235687	0.043836298390578	0.016564134815204	0.016564134815204
0.043819450925972	0.059772261697531	0.03912329775462	0.041471656161124	0.113060294672892	0.152865060018841	0.178720540870621	0.147560209925947	0.12962738327781	0.093434924408688	0.093486666766628	0.095319183550699	0.083267999440063	0.072673906893238	0.03623683109679	0.019469315140219	0.019469315140219
0.015450545964192	0.033796663733085	0.050151944659519	0.094243551450938	0.081612027963055	0.103022277495354	0.097999773778383	0.125667099182491	0.13579469399104	0.092783822379545	0.068697896349926	0.064599963605329	0.097930137114868	0.088413086629114	0.076693543573622	0.025176392896045	0.025176392896045
0.021465586175408	0.022533358551483	0.034279397839027	0.019069292955305	0.038975279691894	0.045053029917288	0.079005157572063	0.058422479406533	0.051434490519881	0.057824782189765	0.03818034756125	0.034692990692589	0.0302437085147	0.04039254493541	0.033109134768746	0.020226650663329	0.025176392896045
0.021465586175408	0.022533358551483	0.034279397839027	0.019069292955305	0.038975279691894	0.045053029917288	0.079005157572063	0.058422479406533	0.051434490519881	0.057824782189765	0.03818034756125	0.034692990692589	0.0302437085147	0.04039254493541	0.033109134768746	0.033109134768746	0.020226650663329
 
